…
## See spec(...) for full column specifications.

legs <- legs %>% filter(type=='sen'|type=='rep') %>% select(twitter,party,govtrack_id,type)
legs <- na.omit(legs)
sens <- legs %>%filter(type == 'sen') %>% select(twitter,party,govtrack_id)
reps <- legs %>% filter(type=='rep') %>% select(twitter,party,govtrack_id)

Make dataframe of followers/followed Each row is a uni-directional follow from follower to followed

senrep <- rbind(sens,reps)
senrep_friends <-rbind(sen_friends,rep_friends)
senrep_friends

## # A tibble: 55,688 x 2
##    follower        followed       
##    <chr>           <chr>          
##  1 SenSherrodBrown RepAGonzalez   
##  2 SenSherrodBrown RepBalderson   
##  3 SenSherrodBrown WarrenDavidson 
##  4 SenSherrodBrown SenBillCassidy 
##  5 SenSherrodBrown SenRickScott   
##  6 SenSherrodBrown SenatorBraun   
##  7 SenSherrodBrown SenHawleyPress 
##  8 SenSherrodBrown SenMcSallyAZ   
##  9 SenSherrodBrown MarshaBlackburn
## 10 SenSherrodBrown SenKevinCramer 
## # ... with 55,678 more rows
…
tweet_count = impeach_tweets_full %>% dplyr::select(created_at,screen_name)
tweet_count$screen_name<-tolower(tweet_count$screen_name)
tweet_count$created_at<-as.Date(tweet_count$created_at)
names(tweet_count) <- c("created_at","twitter")
tweet_dates<-aggregate(tweet_count$created_at, list(tweet_count$twitter), paste, collapse="/")
names(tweet_dates)<-c("twitter","dates")

legislators <- legislators %>% left_join(tweet_dates,by='twitter')
legislators

## # A tibble: 532 x 10
##    twitter party govtrack_id type  terms followed_by follows gender
##    <chr>   <fct>       <int> <chr> <int>       <dbl>   <dbl> <fct> 
##  1 senshe Demo      400050 sen      10         144     113 M     
##  2 senato Demo      300018 sen       5         122     116 F     
##  3 senato Demo      400064 sen      13         131     131 M     
##  4 senato Demo      300019 sen       9         119      94 M     
##  5 senbob Demo      412246 sen       3         134     104 M     
##  6 senfei Demo      300043 sen       6         161      68 F     
##  7 senamy Demo      412242 sen       3          52      61 F     
##  8 senato Demo      400272 sen      11         132      88 M     
##  9 sensan Inde      400357 sen      11         153      71 M     
## 10 sensta Demo      300093 sen       6         115      62 F     
## # ... with 522 more rows, and 2 more variables: numtweets <dbl>,
## #   dates <chr>
…
## See spec(...) for full column specifications.

legs <- legs %>% filter(type=='sen'|type=='rep') %>% dplyr::select(twitter,party,govtrack_id,type)
legs <- na.omit(legs)
sens <- legs %>%filter(type == 'sen') %>% dplyr::select(twitter,party,govtrack_id)
reps <- legs %>% filter(type=='rep') %>% dplyr::select(twitter,party,govtrack_id)

senrep <- rbind(sens,reps)
senrep_friends <-rbind(sen_friends,rep_friends)
senrep_friends$followed<-tolower(senrep_friends$followed)
senrep_friends$follower<-tolower(senrep_friends$follower)
senrep$twitter <- tolower(senrep$twitter)
senrep_friends

## # A tibble: 55,688 x 2
##    follower        followed       
##    <chr>           <chr>          
##  1 sensherrodbrown repagonzalez   
##  2 sensherrodbrown repbalderson   
##  3 sensherrodbrown warrendavidson 
##  4 sensherrodbrown senbillcassidy 
##  5 sensherrodbrown senrickscott   
##  6 sensherrodbrown senatorbraun   
##  7 sensherrodbrown senhawleypress 
##  8 sensherrodbrown senmcsallyaz   
##  9 sensherrodbrown marshablackburn
## 10 sensherrodbrown senkevincramer 
## # ... with 55,678 more rows
…
Collect tweets from top users

top_user_tweets <- impeach_tweets_full
top_user_tweets$screen_name <- tolower(top_user_tweets$screen_name)
top_user_tweets <- top_user_tweets %>% filter(screen_name %in% top_users)
top_user_tweets

## # A tibble: 1,595 x 90
##    user_id status_id created_at          screen_name text  source
##    <chr>   <chr>     <dttm>              <chr>       <chr> <chr> 
##  1 132181 12040470 2019-12-09 14:36:04 johncornyn  "\"F Twitt
##  2 132181 12033357 2019-12-07 15:29:40 johncornyn  Than Twitt
##  3 132181 12029863 2019-12-06 16:21:20 johncornyn  Pelo Twitt
##  4 132181 12029348 2019-12-06 12:56:39 johncornyn  I do Twitt
##  5 132181 12029348 2019-12-06 12:56:39 johncornyn  "\"J Twitt
##  6 132181 12026620 2019-12-05 18:52:22 johncornyn  "Spe Twitt
##  7 132181 12026561 2019-12-05 18:29:03 johncornyn  Unfo Twitt
##  8 132181 12026045 2019-12-05 15:04:00 johncornyn  Sadl Twitt
##  9 132181 12025546 2019-12-05 11:45:52 johncornyn  "Pin Twitt
## 10 132181 12025478 2019-12-05 11:18:41 johncornyn  From Twitt
## # ... with 1,585 more rows, and 84 more variables:
## #   display_text_width <dbl>, reply_to_status_id <chr>,
## #   reply_to_user_id <chr>, reply_to_screen_name <chr>, is_quote <lgl>,
## #   is_retweet <lgl>, favorite_count <int>, retweet_count <int>,
## #   quote_count <int>, reply_count <int>, hashtags <list>, symbols <list>,
## #   urls_url <list>, urls_t.co <list>, urls_expanded_url <list>,
## #   media_url <list>, media_t.co <list>, media_expanded_url <list>,
## #   media_type <list>, ext_media_url <list>, ext_media_t.co <list>,
## #   ext_media_expanded_url <list>, ext_media_type <chr>,
…
